<?xml version="1.0" encoding="UTF-8" standalone="no"?>
<!DOCTYPE svg PUBLIC "-//W3C//DTD SVG 1.1//EN" "http://www.w3.org/Graphics/SVG/1.1/DTD/svg11.dtd">
<svg width="100%" height="100%" viewBox="0 0 1218 515" version="1.1" xmlns="http://www.w3.org/2000/svg" xmlns:xlink="http://www.w3.org/1999/xlink" xml:space="preserve" xmlns:serif="http://www.serif.com/" style="fill-rule:evenodd;clip-rule:evenodd;stroke-linejoin:round;stroke-miterlimit:2;">
    <g transform="matrix(1,0,0,1,-5340,-2152)">
        <g transform="matrix(3.46094,0,0,2.58148,0,0)">
            <g id="logo-blanc" transform="matrix(0.673648,0,0,0.903145,1040.51,330.42)">
                <g transform="matrix(1.1837,0,0,1.1837,-1743.49,385.388)">
                    <path d="M2359.98,172.642C2360.8,172.104 2361.91,171.526 2363.39,170.608C2366.61,168.624 2371.94,166.826 2378.87,167.795C2380.26,167.99 2381.35,168.217 2382.13,168.428C2383.8,168.881 2386.01,169.876 2388.36,172.072C2389.8,173.414 2391.09,175.108 2392.12,177.231L2396.84,165.295C2396.78,165.289 2396.71,165.28 2396.64,165.27C2396.64,165.27 2388.49,162.458 2386.48,161.088C2385.25,160.251 2383.59,159.387 2384.58,157.051C2385.58,154.715 2392.39,148.364 2394.71,150.34C2396.43,151.804 2397.75,157.355 2398,161.29C2399.7,158.337 2402.9,153.608 2406.96,151.636C2406.96,151.636 2409.22,149.908 2411.35,155.048C2411.35,155.048 2415.91,166.124 2411.35,166.501C2411.35,166.501 2402.55,167.819 2398.35,165.393C2398.6,167.391 2398.82,172.151 2399.01,176.268C2399.22,176.12 2399.43,175.977 2399.65,175.839C2402.36,174.131 2406.33,173.001 2412.09,173.807C2416.68,174.449 2421.9,177.149 2423.43,178.523C2424.32,179.309 2425.88,182.218 2426.46,182.941L2426.76,183.395C2426.8,183.221 2426.8,183.215 2426.83,183.062L2426.89,182.783C2427.16,181.312 2427.22,179.671 2428.15,176.101C2430.42,167.415 2435.02,165.065 2438.54,162.888C2443.46,159.841 2447.35,159.458 2452.83,161.304C2452.89,161.323 2452.95,161.343 2453.01,161.364C2453.01,161.364 2482.87,171.754 2488.82,173.825L2489.34,174.022L2489.77,174.157L2489.77,174.156L2489.77,174.158C2497.68,176.837 2502.18,181.194 2504.77,185.412C2508.4,191.334 2509.03,197.908 2506.97,204.414L2516.34,194.859C2514.24,191.777 2504.34,176.589 2508.59,170.603C2510.28,168.212 2520.26,163.485 2520.69,177.863C2520.69,177.863 2520.57,180.333 2520.1,183.574C2521.52,179.302 2523.03,174.992 2523.95,173.055C2524.67,171.544 2526.78,167.706 2529.41,167.839C2532.97,168.019 2535.4,169.88 2539.88,175.164C2541.82,177.454 2540.74,180.93 2535.61,184.139C2535.61,184.139 2530.85,187.613 2526.2,190.751C2531.2,188.636 2536.7,186.63 2538.85,186.974C2543.09,187.655 2546.19,197.98 2542.47,199.347C2538.84,200.679 2531.4,203.914 2519.78,197.263L2508.98,220.541C2510.2,220.608 2511.41,220.797 2512.6,221.107C2512.62,221.115 2512.65,221.122 2512.68,221.13C2512.68,221.13 2517.49,222.487 2520.92,224.577C2526.61,228.05 2529.6,231.82 2531.11,234.511C2535.36,242.12 2534.58,249.013 2530.94,255.148C2529.37,257.796 2527.23,260.129 2524.38,261.997C2524.34,262.026 2524.3,262.053 2524.25,262.081L2497.95,279.024L2496.62,280.767L2506.85,277.266C2517.76,273.401 2512.41,292.176 2512.41,292.176C2510.01,301.108 2501.25,296.726 2501.25,296.726C2508.5,301.657 2506.49,313.019 2496.69,315.326C2486.9,317.634 2486.8,308.513 2486.8,308.513C2485.62,320.929 2473.09,316.585 2473.09,316.585C2468.53,314.632 2468.02,310.82 2468.9,307.116C2465.55,307.309 2460.47,306.899 2455.4,303.811C2450.85,301.032 2449.12,299.287 2447.14,296.201C2444.37,296.368 2440.44,297.225 2436.34,295.846C2427.62,292.908 2425.59,286.857 2423.03,283.433C2421.62,283.988 2415.63,285.023 2410.2,282.684C2406.69,281.173 2400.57,279.145 2398.08,273.765C2397.76,273.727 2395.66,277.79 2388.44,275.893C2381.28,274.012 2378.32,273.551 2376.73,268.185C2376.51,268.503 2372.48,270.77 2370.9,270.988C2368.76,271.283 2363.82,270.767 2360.58,269.871C2353.64,267.953 2351.51,261.472 2349.24,259.352C2347.26,257.506 2345.9,257.584 2343.8,258.582C2343.74,258.614 2343.73,258.323 2343.76,257.827C2347.04,253.643 2349.73,248.877 2351.8,244.09C2354.31,238.295 2358.06,224.926 2359.14,212.652C2360.03,202.584 2360.1,185.777 2359.98,172.642ZM2479.3,257.285L2480.52,220.437C2480.53,219.929 2480.87,219.012 2480.87,219.012C2480.93,218.857 2481.07,218.741 2481.23,218.703C2481.23,218.703 2483.88,218.064 2487.15,220.061C2490.43,222.064 2491.82,224.294 2491.45,226.656L2490.79,248.774L2508.66,236.882C2509.69,236.091 2511.56,235.78 2511.56,235.78C2511.63,235.769 2511.7,235.772 2511.77,235.79C2511.77,235.79 2513.82,236.328 2515.27,237.213C2517.27,238.433 2518.52,239.533 2519.05,240.478C2519.49,241.26 2519.49,241.967 2519.12,242.597C2518.91,242.95 2518.61,243.252 2518.24,243.5L2488.33,262.766L2474.32,286.385C2473.81,287.24 2473.14,288.031 2473.14,288.031C2473.07,288.112 2472.98,288.17 2472.88,288.194C2472.88,288.194 2471.06,288.638 2469.25,287.53C2467.37,286.385 2466.11,285.275 2465.46,284.222C2464.72,283.037 2464.69,281.904 2465.34,280.823L2479.3,257.285ZM2444.59,183.403C2444.27,181.95 2443.55,181.496 2444.58,178.371C2445.21,176.424 2445.94,174.94 2446.75,173.915C2448.08,172.233 2449.62,171.715 2451.36,172.302C2451.36,172.302 2451.37,172.303 2451.37,172.303C2451.37,172.303 2488.23,185.131 2488.23,185.129C2492.97,186.727 2494.75,189.027 2493.84,191.799C2492.98,194.422 2492.17,196.289 2491.33,197.557C2490.41,198.935 2489.44,199.639 2488.35,199.878C2487.43,200.079 2486.4,199.943 2485.21,199.544C2485.21,199.541 2485.2,199.539 2485.19,199.536L2474.35,195.351L2467.29,220.258C2467.29,220.264 2467.29,220.27 2467.29,220.276C2467.29,220.276 2450.92,270.622 2450.92,270.623C2450.39,272.225 2450.01,273.265 2449.76,273.745C2449.75,273.761 2449.75,273.776 2449.74,273.79C2449.39,274.321 2448.86,274.668 2448.12,274.807C2447.19,274.984 2445.87,274.808 2444.18,274.238C2441.37,273.293 2439.54,272.445 2438.39,271.609C2437.55,270.999 2437.05,270.384 2436.79,269.747C2436.35,268.699 2436.53,267.57 2436.97,266.217L2461.56,191.165L2447.9,186.564L2447.88,186.556C2445.89,185.785 2444.82,184.703 2444.59,183.403ZM2427.41,204.972C2427.48,204.567 2428.39,199.892 2429.54,197.223C2429.89,196.435 2430.26,195.814 2430.63,195.478C2431,195.142 2431.39,195.041 2431.77,195.152L2441.1,197.671L2441.12,197.676C2441.4,197.763 2441.65,198.001 2441.78,198.446C2441.96,199.043 2441.94,200.166 2441.75,201.645C2440.74,209.469 2435.12,227.91 2434.97,228.395C2434.84,228.926 2429.01,251.105 2425.31,259.626C2424.62,261.216 2423.99,262.346 2423.49,262.827C2423.12,263.181 2422.76,263.258 2422.46,263.174L2411.8,260.294C2411.78,260.29 2411.77,260.286 2411.75,260.28C2411.57,260.212 2411.4,260.063 2411.32,259.791C2411.24,259.539 2411.24,259.079 2411.33,258.481C2411.76,255.699 2414.04,249.309 2414.16,248.975L2427.41,204.972ZM2370.83,181.367C2371.03,179.858 2371.96,178.889 2373.68,178.5C2374.7,178.266 2376.04,178.25 2377.68,178.465C2378.52,178.575 2379.17,178.693 2379.64,178.816C2380.15,178.95 2380.78,179.333 2381.5,179.996C2382.19,180.631 2382.77,181.486 2383.22,182.569C2383.23,182.589 2383.24,182.609 2383.24,182.63L2395.08,225.448L2403.23,187.757L2403.24,187.737C2403.47,186.85 2403.84,186.167 2404.36,185.656C2405.5,184.516 2407.43,184.219 2410.38,184.606C2412.15,184.838 2413.29,185.501 2413.89,186.024C2414.81,186.833 2414.95,187.562 2414.88,188.352C2414.85,188.787 2414.74,189.246 2414.7,189.765C2414.7,189.78 2414.69,189.795 2414.69,189.809L2408.18,226.842C2408.18,226.854 2408.18,226.866 2408.17,226.878L2401.61,252.884L2401.6,252.9C2401.19,254.315 2400.51,256.272 2400.02,256.865C2399.57,257.408 2398.93,257.696 2398.17,257.807C2397.18,257.951 2395.98,257.792 2394.79,257.635C2390.98,257.136 2389.89,254.388 2389.42,251.951L2378.04,212.192L2372.91,247.903C2372.76,249.081 2372.12,250.179 2371.85,250.478C2371.5,250.882 2370.95,251.145 2370.25,251.272C2369.36,251.436 2368.22,251.381 2367.02,251.223C2363.87,250.807 2362.15,250.05 2361.29,248.977C2360.68,248.213 2360.47,247.279 2360.52,246.142C2360.52,246.123 2360.52,246.105 2360.53,246.087L2370.83,181.367Z" style="fill:white;"/>
                </g>
                <g transform="matrix(1.1837,0,0,1.1837,-1743.49,385.388)">
                    <path d="M2294.75,257.489C2294.53,257.513 2294.31,257.534 2294.07,257.553C2290.43,257.839 2288.59,261.733 2287.39,263.469C2286.09,265.351 2284.05,267.653 2280.63,269.61C2279.07,270.499 2276.48,271.671 2272.67,272.639C2265.7,274.412 2260.33,274.172 2256.65,273.3C2256.01,273.147 2255.38,272.975 2254.78,272.784C2252.7,275.598 2250.05,277.485 2247.2,278.742L2247.16,278.762C2247.16,278.762 2237.63,283.01 2237.63,283.01C2237.11,283.244 2236.57,283.455 2236.03,283.641C2233.41,284.533 2230,285.197 2226.31,284.557C2224.98,286.171 2223.44,287.687 2221.69,289.145C2218.63,291.695 2214.47,294.091 2209.21,297.027C2207.11,298.198 2200.71,300.915 2190.04,305.21C2185.74,306.939 2181.16,306.987 2177.05,305.645C2173.73,309.125 2163.2,318.619 2147.93,317.172C2129.28,315.407 2123.73,297.207 2125.38,288.145C2127.28,277.7 2144.21,268.25 2153.78,281.895C2163.85,296.273 2143.29,308.757 2137.92,295.642C2137.05,293.508 2136.78,289.703 2139.76,289.284C2141.49,289.041 2142.16,289.775 2143.63,292.007C2144.33,293.059 2145.5,293.056 2146.27,292.186C2146.89,291.496 2146.86,290.864 2146.17,289.13C2145.39,287.178 2141.92,282.972 2137.27,285.553C2135.13,286.743 2130.8,291.725 2134.73,298.905C2138.66,306.086 2150.19,311.771 2159.34,300.782C2163.25,296.085 2162.13,290.017 2160.21,285.021L2143.32,252.331C2138.48,254.003 2130.59,254.627 2123.43,245.689C2122.66,244.962 2121.99,243.639 2121.82,243.64C2121.48,244.292 2119.96,247.518 2119.54,248.16C2115.45,254.372 2109.17,257.468 2105.52,255.068C2101.87,252.668 2102.23,245.675 2106.31,239.463C2107.43,237.761 2108.71,236.293 2110.06,235.109C2109.87,234.195 2109.73,233.245 2109.66,232.268C2109.1,224.176 2113.34,217.279 2119.13,216.876C2124.92,216.473 2130.07,222.715 2130.64,230.807C2130.82,233.366 2130.51,235.805 2129.83,237.958C2130.31,238.44 2134.24,242.276 2138.44,242.898L2137.24,240.581C2132.78,231.956 2135.53,221.375 2143.68,216.022C2150,211.871 2155,208.795 2158.66,206.755C2158.6,206.362 2158.61,205.883 2158.7,205.307C2159.48,200.405 2158.69,196.679 2157.87,194.384C2156.99,194.859 2156.12,195.324 2155.28,195.779C2154.47,196.317 2153.63,196.823 2152.76,197.29C2148.87,199.368 2144.97,200.367 2141.52,200.362C2137.82,200.358 2131.92,198.218 2130.72,193.779C2128.73,186.419 2134.6,178.979 2144.33,173.77C2147.34,172.162 2150.35,171.201 2153.16,170.849C2154.93,167.951 2157.73,163.681 2161.42,160.509C2162.73,159.383 2164.14,158.394 2165.67,157.655C2174.24,153.499 2182.39,153.465 2185.08,157.286C2195.68,152.89 2204.88,152.941 2206.31,157.694C2207.06,160.179 2205.99,165.343 2198.97,170.373C2192.67,174.884 2181.97,181.116 2171.18,187.11C2172.89,192.382 2173.26,199.203 2173.32,200.607C2176.95,199.674 2180.17,199.37 2183.26,199.467C2185.1,199.526 2186.94,199.739 2188.78,200.14C2190.89,195.458 2194.72,192.439 2198.57,190.704L2198.8,190.595C2198.8,190.595 2207.13,186.878 2207.13,186.878C2207.34,186.786 2207.55,186.698 2207.76,186.613C2209.68,185.836 2211.74,185.317 2213.92,185.186C2214.6,184.444 2215.36,183.714 2216.21,182.998C2216.51,182.741 2216.85,182.473 2217.22,182.199C2216.21,179.311 2216.04,176.971 2216.55,174.82C2214.59,176.915 2212.36,175.438 2211.95,174.879C2209.44,171.534 2213.27,166.091 2216.84,164.905C2218.08,164.497 2218.43,164.549 2219.46,164.236C2219.94,163.7 2220.47,163.187 2221.06,162.711C2224.91,159.6 2229.63,159.23 2231.59,161.887C2232.8,163.526 2232.67,165.937 2231.5,168.273C2230.77,169.724 2229.63,171.145 2228.16,172.337C2226.24,173.887 2224.11,174.757 2222.2,174.91C2221.71,176.719 2221.79,178.193 2222.13,179.354C2223.81,178.6 2225.8,177.886 2228.16,177.285C2231.4,176.463 2234.21,176.188 2236.57,176.23C2238.01,176.255 2239.36,176.396 2240.6,176.62C2242.42,176.949 2244.18,177.461 2245.84,178.188C2246.57,177.22 2247.38,176.329 2248.23,175.496C2250.41,173.386 2254.09,170.694 2260.18,169.146C2265.82,167.711 2269.98,167.647 2272.55,168.048C2274.9,168.415 2277,169.013 2278.85,169.844C2278.68,183.306 2278.67,201.854 2279.62,212.652C2280.71,224.926 2284.46,238.295 2286.97,244.09C2288.98,248.748 2291.58,253.387 2294.75,257.489ZM2167.97,219.774C2164.62,221.479 2159.35,224.686 2152.18,229.397C2151.97,229.538 2151.89,229.817 2152.01,230.045L2180.82,285.779C2180.94,286.008 2181.21,286.109 2181.45,286.013C2190.93,282.2 2196.65,279.88 2198.51,278.84C2202.55,276.585 2205.82,274.856 2208.17,272.898C2210.61,270.868 2212.08,268.593 2212.45,265.285C2213.11,259.378 2209.43,249.346 2203.69,238.25C2199.56,230.265 2196.2,225.242 2192.16,221.566C2188.1,217.858 2184.7,215.991 2181.01,215.874C2177.35,215.759 2173.51,216.958 2167.97,219.774ZM2178.09,226.382C2178.54,226.152 2179.09,226.2 2179.73,226.466C2180.49,226.781 2181.34,227.394 2182.28,228.289C2185.25,231.106 2189.04,236.651 2193.26,244.806C2196.67,251.405 2197.85,257.175 2198.98,260.579C2199.4,261.823 2199.56,262.842 2199.43,263.642C2199.39,263.867 2199.33,264.072 2199.25,264.257C2198.85,265.129 2198.31,265.87 2197.62,266.479C2196.91,267.118 2194.56,268.012 2192.54,269.042C2190.5,270.078 2189.13,270.719 2188.41,270.958C2187.99,271.102 2187.67,271.073 2187.51,270.752C2187.51,270.752 2168.25,233.497 2168.25,233.497C2167.95,232.912 2168.25,232.386 2169,231.847C2170,231.121 2173.78,228.573 2178.09,226.382ZM2205.26,204.811L2213.59,201.094L2213.61,201.087C2213.87,200.981 2214.2,201.005 2214.57,201.253C2215.06,201.578 2215.71,202.398 2216.45,203.58C2220.31,209.794 2227.05,226.353 2227.24,226.808C2227.46,227.295 2236.24,246.66 2238.54,254.962C2238.98,256.52 2239.18,257.713 2239.09,258.359C2239.03,258.844 2238.8,259.119 2238.53,259.235L2229,263.484C2228.99,263.49 2228.97,263.495 2228.96,263.5C2228.78,263.562 2228.56,263.553 2228.33,263.402C2228.12,263.265 2227.84,262.933 2227.55,262.441C2226.23,260.188 2224.14,254.254 2224.03,253.928L2207.83,214.492C2207.64,214.14 2205.55,210.252 2204.83,207.653C2204.62,206.878 2204.52,206.204 2204.6,205.74C2204.68,205.267 2204.91,204.958 2205.26,204.811ZM2257.89,189.665C2257.8,188.128 2258.23,187.067 2259.01,186.308C2259.7,185.645 2260.94,184.971 2262.86,184.484C2265.22,183.883 2266.93,183.558 2268.01,183.726C2269.12,183.9 2269.78,184.467 2270.05,185.515C2270.13,185.82 2270.28,186.862 2270.29,187.183C2270.3,187.195 2270.3,187.207 2270.3,187.219C2270.3,187.219 2271.2,236.367 2271.38,246.19L2271.41,247.882C2271.47,249.488 2271.22,250.577 2270.81,251.176C2270.61,251.467 2270.21,251.803 2269.57,252.11C2268.89,252.438 2267.85,252.784 2266.47,253.136C2263.23,253.959 2260.75,254.132 2259.05,253.727C2257.67,253.4 2256.72,252.709 2256.17,251.729C2256.17,251.729 2225.54,198.468 2225.54,198.468C2225.53,198.462 2225.53,198.455 2225.53,198.449C2225.44,198.286 2225.2,197.802 2225.07,197.438C2224.96,197.152 2224.92,196.899 2224.93,196.757C2224.94,196.048 2225.25,195.328 2226.05,194.661C2226.89,193.947 2228.42,193.24 2230.84,192.624C2232.25,192.266 2233.46,192.103 2234.49,192.121C2234.9,192.128 2235.28,192.165 2235.64,192.229C2237.05,192.482 2238.19,193.336 2239.01,194.848L2259.23,231.455L2257.89,189.665Z" style="fill:white;"/>
                </g>
                <g transform="matrix(1.1837,0,0,1.06219,-3975.94,-80.4341)">
                    <path d="M4189.69,735.211C4182.23,729.99 4176.64,721.572 4172.97,713.09C4170.46,707.295 4166.71,693.926 4165.62,681.652C4164.04,663.757 4165.11,624.574 4165.17,622.532C4165.19,615.097 4166.92,610.463 4168.74,608.291C4168.93,608.059 4169.14,607.831 4169.37,607.607L4169.45,607.426C4169.7,606.91 4169.96,606.46 4170.22,606.076L4170.53,605.676C4172.44,603.333 4176.16,601.488 4182.14,601.488L4183.21,601.509L4183.84,601.541C4188.74,601.856 4192.01,603.542 4193.9,605.778C4194.36,606.323 4194.82,607.026 4195.24,607.898C4195.38,608.049 4195.53,608.203 4195.66,608.359C4197.6,610.588 4199.54,615.723 4199.82,624.142C4199.82,624.231 4199.82,624.32 4199.82,624.408C4199.82,624.408 4199.68,673.062 4199.68,673.217C4199.34,685.606 4202.16,695.067 4205.38,700.976C4208.61,695.067 4211.43,685.606 4211.09,673.217C4211.09,673.153 4211.09,673.088 4211.09,673.024L4211,624.399L4211.01,624.142C4211.28,615.723 4213.23,610.588 4215.16,608.359C4215.32,608.176 4215.49,607.996 4215.66,607.82L4215.72,607.729C4216.1,606.921 4216.51,606.272 4216.93,605.778L4217.03,605.659C4218.41,604.083 4220.38,602.815 4223.09,602.151C4223.66,602.001 4224.26,601.873 4224.9,601.772L4225,601.751C4225.26,601.696 4225.52,601.661 4225.79,601.646L4225.84,601.643C4226.73,601.541 4227.68,601.488 4228.69,601.488L4229.78,601.509L4230.95,601.583L4231.17,601.602C4235.66,602.033 4238.6,603.638 4240.24,605.606C4240.26,605.629 4240.28,605.652 4240.3,605.676C4240.71,606.174 4241.1,606.816 4241.46,607.607C4241.68,607.831 4241.89,608.059 4242.09,608.291C4243.91,610.463 4245.64,615.099 4245.65,622.537C4245.71,624.513 4246.73,663.744 4245.14,681.652C4244.06,693.926 4240.31,707.295 4237.8,713.09C4234.19,721.432 4228.72,729.712 4221.44,734.951C4223.07,732.199 4224,728.992 4224,725.57C4224,724.145 4223.84,722.759 4223.53,721.427C4226.47,717.573 4228.84,713.085 4230.69,708.686C4233.01,703.175 4236.44,690.451 4237.45,678.78C4239.05,660.191 4237.93,618.893 4237.93,618.893C4237.93,613.827 4237.33,610.558 4236.13,609.085C4234.92,607.613 4232.44,606.876 4228.69,606.876C4224.94,606.876 4222.38,607.672 4221.04,609.262C4219.69,610.853 4218.92,614.652 4218.73,620.661L4218.81,670.582C4219.3,688.768 4213.89,699.279 4209.35,705.235C4208.11,704.97 4206.81,704.83 4205.49,704.83C4204.1,704.83 4202.74,704.983 4201.44,705.274C4196.9,699.337 4191.47,688.809 4191.96,670.582L4192.1,620.661C4191.91,614.652 4191.14,610.853 4189.79,609.262C4188.44,607.672 4185.89,606.876 4182.14,606.876C4178.38,606.876 4175.9,607.613 4174.7,609.085C4173.49,610.558 4172.89,613.827 4172.89,618.893C4172.89,618.893 4171.72,660.191 4173.32,678.78C4174.32,690.451 4177.75,703.175 4180.08,708.686C4181.96,713.166 4184.38,717.739 4187.4,721.638C4187.12,722.906 4186.98,724.221 4186.98,725.57C4186.98,729.1 4187.97,732.402 4189.69,735.211Z" style="fill:white;stroke:white;stroke-width:1.91px;"/>
                </g>
                <g transform="matrix(1.1837,0,0,1.1837,-3975.94,-169.767)">
                    <path d="M4239.28,778.039L4239.28,774.804C4239.28,773.616 4239.94,771.926 4242.64,771.926C4243.4,771.926 4244.03,771.982 4244.52,772.076C4246.56,772.46 4247.03,773.84 4247.12,774.438C4247.13,774.514 4247.14,774.59 4247.15,774.666L4247.56,782.202C4247.57,782.248 4247.57,782.294 4247.57,782.34C4247.57,782.34 4247.57,792.57 4247.57,792.57C4247.57,793.251 4247.38,793.683 4247.26,793.91C4247.22,793.981 4247.18,794.051 4247.14,794.119C4246.85,794.566 4245.99,795.448 4244.14,795.448C4243.43,795.448 4242.82,795.392 4242.33,795.296C4241.94,795.223 4241.62,795.115 4241.34,794.983C4240.61,795.292 4239.84,795.448 4239.01,795.448L4239.01,795.448C4237.16,795.448 4235.74,794.792 4234.73,793.547C4233.6,794.702 4231.83,795.448 4229.28,795.448C4227.33,795.448 4225.84,795.013 4224.74,794.294L4224.75,794.483C4224.75,796.712 4223.96,798.277 4222.68,799.297C4221.62,800.134 4219.8,800.739 4217.1,800.739C4216.08,800.739 4214.8,800.605 4213.26,800.319C4213.25,800.318 4213.25,800.317 4213.24,800.316C4212.39,800.152 4210.85,799.281 4210.85,796.656C4210.85,795.655 4211.07,794.915 4211.41,794.374C4211.17,793.927 4211.07,793.439 4211.07,792.924C4211.07,792.484 4211.14,791.996 4211.3,791.462L4211.59,790.62C4211.18,790.18 4210.85,789.67 4210.58,789.091C4210.11,788.057 4209.84,786.772 4209.84,785.223C4209.84,783.818 4209.96,782.757 4210.14,782.036C4210.43,780.873 4211.02,779.979 4211.86,779.319C4212.59,778.739 4213.45,778.346 4214.45,778.167C4215.13,778.045 4216.06,777.974 4217.25,777.974C4217.25,777.974 4222.59,777.974 4222.59,777.974C4223.27,777.974 4224.15,778.208 4224.76,778.965C4224.91,778.87 4225.07,778.784 4225.23,778.706C4226.15,778.264 4227.49,777.974 4229.28,777.974C4231.07,777.974 4232.41,778.264 4233.33,778.706C4233.92,778.988 4234.44,779.373 4234.89,779.875C4235.8,778.94 4237.24,778.247 4239.28,778.039ZM4252.69,790.62C4252.28,790.18 4251.95,789.67 4251.69,789.091C4251.22,788.057 4250.95,786.772 4250.95,785.223C4250.95,783.818 4251.06,782.757 4251.25,782.036C4251.54,780.873 4252.13,779.979 4252.96,779.319C4253.69,778.739 4254.55,778.346 4255.56,778.167C4256.24,778.045 4257.17,777.974 4258.35,777.974C4258.35,777.974 4263.69,777.974 4263.69,777.974C4264.16,777.974 4264.73,778.087 4265.24,778.411C4266.1,778.127 4267.08,777.974 4268.19,777.974C4269.96,777.974 4271.31,778.259 4272.26,778.708C4272.62,778.877 4272.95,779.081 4273.26,779.323C4273.73,778.593 4274.64,777.974 4276.29,777.974C4277.49,777.974 4278.31,778.157 4278.79,778.361C4278.95,778.43 4279.1,778.505 4279.23,778.587C4280.22,778.153 4281.02,777.974 4281.61,777.974C4282.98,777.974 4284.1,778.278 4284.97,778.834C4286.2,778.224 4287.19,777.974 4287.89,777.974C4290.02,777.974 4291.53,778.748 4292.52,780.025L4292.52,780.032C4292.98,779.465 4293.52,779.039 4294.11,778.734C4295,778.277 4296.3,777.974 4298.03,777.974C4299.78,777.974 4301.09,778.287 4301.98,778.757C4303.12,779.357 4304.05,780.406 4304.58,782.034C4304.93,783.116 4305.14,784.648 4305.14,786.64L4305.14,786.923C4305.14,787.253 4305.04,787.976 4304.48,788.608C4304.69,788.821 4304.88,789.09 4305.04,789.433C4305.19,789.743 4305.39,790.454 4305.39,791.601C4305.39,793.774 4304.24,794.66 4303.24,794.956C4302.38,795.236 4300.65,795.448 4298.03,795.448C4296.04,795.448 4294.54,794.955 4293.45,794.138C4293.16,794.58 4292.28,795.448 4290.43,795.448C4289.77,795.448 4289.09,795.401 4288.4,795.307C4287.5,795.185 4286.91,794.936 4286.58,794.744C4286.09,795.107 4285.32,795.448 4284.15,795.448C4283.49,795.448 4282.82,795.401 4282.12,795.307C4281.23,795.185 4280.64,794.936 4280.31,794.744C4279.82,795.107 4279.04,795.448 4277.88,795.448C4277.22,795.448 4276.54,795.401 4275.85,795.307C4275.19,795.217 4274.69,795.058 4274.35,794.904C4273.85,795.207 4273.15,795.448 4272.18,795.448C4271.16,795.448 4270.4,795.266 4269.86,795.041C4269.19,795.326 4268.57,795.448 4268,795.448C4267.12,795.448 4266.41,795.378 4265.87,795.263L4265.82,795.251C4265.66,797.077 4264.91,798.398 4263.78,799.297C4262.73,800.134 4260.9,800.739 4258.2,800.739C4257.18,800.739 4255.9,800.605 4254.36,800.319C4254.36,800.318 4254.35,800.317 4254.35,800.316C4253.5,800.152 4251.95,799.281 4251.95,796.656C4251.95,795.655 4252.18,794.915 4252.51,794.374C4252.28,793.927 4252.18,793.439 4252.18,792.924C4252.18,792.484 4252.24,791.996 4252.41,791.462L4252.69,790.62ZM4165.01,778.597C4166.01,778.156 4166.82,777.974 4167.41,777.974C4169.61,777.974 4171.2,778.896 4172.23,780.63C4172.94,781.832 4173.42,783.898 4173.42,786.876C4173.42,790.057 4172.72,792.161 4171.76,793.296C4170.87,794.357 4169.36,795.157 4167.14,795.383L4167.14,797.861C4167.14,798.543 4166.96,798.974 4166.84,799.202C4166.8,799.273 4166.76,799.343 4166.72,799.411C4166.43,799.849 4165.57,800.739 4163.69,800.739C4163.02,800.739 4162.37,800.69 4161.73,800.591C4160.57,800.41 4159.95,799.984 4159.72,799.774C4159.05,799.171 4158.86,798.485 4158.86,797.861L4158.86,794.373C4157.77,795.045 4156.32,795.448 4154.45,795.448C4151.6,795.448 4149.72,794.518 4148.64,793.128C4147.55,794.518 4145.68,795.448 4142.83,795.448C4140.73,795.448 4139.16,794.943 4138.04,794.121C4137.61,794.617 4137.06,794.878 4136.57,794.996C4135.35,795.298 4134.15,795.448 4132.98,795.448C4130,795.448 4128.06,794.515 4126.97,793.154C4126,791.953 4125.33,789.82 4125.33,786.664C4125.33,784.566 4125.57,782.989 4125.96,781.921C4126.53,780.345 4127.51,779.305 4128.77,778.708C4129.72,778.261 4131.09,777.974 4132.9,777.974C4134.73,777.974 4136.15,778.388 4137.21,779.071L4137.24,779.087C4137.39,779.17 4137.52,779.257 4137.65,779.354L4137.71,779.399C4138.03,779.121 4138.39,778.891 4138.78,778.706C4139.69,778.264 4141.04,777.974 4142.83,777.974C4144.62,777.974 4145.96,778.264 4146.88,778.706C4147.55,779.03 4148.15,779.492 4148.64,780.111C4149.13,779.492 4149.72,779.03 4150.4,778.706C4151.31,778.264 4152.66,777.974 4154.45,777.974C4156.24,777.974 4157.58,778.264 4158.5,778.706C4158.82,778.861 4159.12,779.047 4159.4,779.267C4159.92,778.571 4160.87,777.974 4162.51,777.974C4163.61,777.974 4164.43,778.235 4165.01,778.597ZM4258.89,793.703L4256.81,793.727C4255.79,793.727 4255.19,793.648 4254.98,793.491C4254.78,793.333 4254.68,793.144 4254.68,792.924C4254.68,792.703 4254.72,792.459 4254.8,792.192L4255.65,789.687C4254.87,789.357 4254.31,788.813 4253.96,788.057C4253.62,787.301 4253.45,786.356 4253.45,785.223C4253.45,784.089 4253.52,783.23 4253.67,782.648C4253.82,782.065 4254.1,781.608 4254.52,781.277C4254.93,780.947 4255.43,780.73 4256,780.628C4256.57,780.525 4257.36,780.474 4258.35,780.474L4263.69,780.474C4263.96,780.474 4264.09,780.789 4264.09,781.419C4264.09,781.734 4263.96,781.923 4263.69,781.986L4263.62,782.01L4262.57,782.199C4263.02,782.923 4263.25,783.86 4263.25,785.01C4263.25,786.821 4262.89,788.124 4262.16,788.92C4261.44,789.715 4260.16,790.113 4258.35,790.113L4257.81,790.113L4257.59,791.223C4259.44,791.254 4260.64,791.317 4261.19,791.412C4261.75,791.506 4262.13,791.617 4262.35,791.743C4262.56,791.869 4262.76,792.058 4262.95,792.31C4263.14,792.562 4263.25,792.853 4263.29,793.184C4263.33,793.515 4263.35,793.948 4263.35,794.483C4263.35,795.79 4262.98,796.743 4262.22,797.342C4261.47,797.94 4260.13,798.239 4258.2,798.239C4257.31,798.239 4256.18,798.113 4254.82,797.861C4254.58,797.814 4254.45,797.412 4254.45,796.656C4254.45,795.901 4254.57,795.523 4254.8,795.523L4254.85,795.523C4256.32,795.68 4257.49,795.759 4258.36,795.759C4259.24,795.759 4259.78,795.696 4259.99,795.57C4260.21,795.444 4260.31,795.133 4260.31,794.637C4260.31,794.141 4260.22,793.861 4260.03,793.798C4259.84,793.735 4259.46,793.703 4258.89,793.703ZM4217.78,793.703L4215.7,793.727C4214.69,793.727 4214.08,793.648 4213.88,793.491C4213.67,793.333 4213.57,793.144 4213.57,792.924C4213.57,792.703 4213.61,792.459 4213.69,792.192L4214.55,789.687C4213.77,789.357 4213.2,788.813 4212.86,788.057C4212.52,787.301 4212.34,786.356 4212.34,785.223C4212.34,784.089 4212.42,783.23 4212.56,782.648C4212.71,782.065 4212.99,781.608 4213.41,781.277C4213.83,780.947 4214.32,780.73 4214.89,780.628C4215.46,780.525 4216.25,780.474 4217.25,780.474L4222.59,780.474C4222.85,780.474 4222.98,780.789 4222.98,781.419C4222.98,781.734 4222.85,781.923 4222.59,781.986L4222.52,782.01L4221.46,782.199C4221.92,782.923 4222.15,783.86 4222.15,785.01C4222.15,786.821 4221.78,788.124 4221.06,788.92C4220.33,789.715 4219.06,790.113 4217.25,790.113L4216.71,790.113L4216.49,791.223C4218.33,791.254 4219.53,791.317 4220.09,791.412C4220.65,791.506 4221.03,791.617 4221.24,791.743C4221.45,791.869 4221.65,792.058 4221.84,792.31C4222.03,792.562 4222.14,792.853 4222.19,793.184C4222.23,793.515 4222.25,793.948 4222.25,794.483C4222.25,795.79 4221.87,796.743 4221.12,797.342C4220.37,797.94 4219.03,798.239 4217.1,798.239C4216.2,798.239 4215.07,798.113 4213.72,797.861C4213.47,797.814 4213.35,797.412 4213.35,796.656C4213.35,795.901 4213.46,795.523 4213.69,795.523L4213.74,795.523C4215.21,795.68 4216.38,795.759 4217.26,795.759C4218.13,795.759 4218.68,795.696 4218.89,795.57C4219.1,795.444 4219.21,795.133 4219.21,794.637C4219.21,794.141 4219.11,793.861 4218.93,793.798C4218.74,793.735 4218.36,793.703 4217.78,793.703ZM4167.41,780.474C4168.62,780.474 4169.51,780.951 4170.07,781.903C4170.64,782.856 4170.92,784.514 4170.92,786.876C4170.92,789.239 4170.56,790.841 4169.85,791.684C4169.14,792.526 4167.8,792.948 4165.82,792.948L4164.64,792.948L4164.64,797.861C4164.64,797.956 4164.64,798.019 4164.62,798.05C4164.54,798.176 4164.23,798.239 4163.69,798.239C4163.15,798.239 4162.63,798.2 4162.12,798.121C4161.61,798.042 4161.36,797.956 4161.36,797.861L4161.36,780.852C4161.36,780.6 4161.74,780.474 4162.51,780.474C4163.28,780.474 4163.74,780.616 4163.88,780.899L4164.35,781.797C4165.72,780.915 4166.74,780.474 4167.41,780.474ZM4107.65,795.189L4107.71,795.212C4106.27,794.709 4105.73,793.8 4105.54,793.171C4105.51,793.093 4105.49,793.015 4105.48,792.936C4105.42,792.669 4105.4,792.428 4105.4,792.215C4105.4,792.144 4105.56,790.961 4105.95,788.677C4106.29,786.656 4106.72,784.247 4107.22,781.452C4107.72,778.663 4108.04,776.836 4108.2,775.97L4108.45,774.502C4108.57,773.841 4108.92,773.096 4109.87,772.567C4110.44,772.251 4111.97,771.903 4114.52,771.903C4117.38,771.903 4118.52,773.346 4118.8,774.59L4120.46,781.828C4120.47,781.87 4120.48,781.913 4120.49,781.957L4122.17,791.59C4122.24,791.912 4122.26,792.211 4122.26,792.487C4122.26,793.321 4121.97,793.993 4121.46,794.533C4121.19,794.821 4120.38,795.448 4118.81,795.448C4115.51,795.448 4114.23,793.81 4114.02,792.484L4113.95,792.119L4113.9,792.44C4113.78,793.297 4113.52,793.837 4113.33,794.122C4112.82,794.873 4112.13,795.299 4111.24,795.406C4111.05,795.429 4110.73,795.448 4110.3,795.448L4109.62,795.448C4108.63,795.448 4107.98,795.306 4107.65,795.189L4107.55,795.151C4107.58,795.163 4107.61,795.176 4107.65,795.189ZM4185.83,774.743C4186.08,773.564 4186.71,772.844 4187.48,772.419C4187.93,772.165 4188.68,771.926 4189.77,771.926C4190.83,771.926 4191.65,772.129 4192.26,772.45C4192.41,772.397 4192.57,772.357 4192.73,772.332C4194.54,772.059 4196.11,771.926 4197.44,771.926C4200.57,771.926 4202.67,772.71 4203.86,773.838C4205.13,775.036 4205.95,776.955 4205.95,779.718C4205.95,782.324 4205.3,784.276 4204.19,785.652L4206.5,790.704C4206.92,791.611 4207,792.239 4207,792.51C4207,793.632 4206.5,794.236 4206.19,794.535L4206.2,794.511C4205.73,794.991 4204.92,795.448 4203.62,795.448C4200.62,795.448 4199.1,794.25 4198.56,793.117C4198.42,793.743 4198.17,794.145 4197.99,794.362C4197.68,794.744 4196.85,795.448 4195.21,795.448C4191.71,795.448 4190.6,793.572 4190.6,792.003L4190.6,788.989L4189.71,792.624C4189.46,793.726 4188.96,794.358 4188.56,794.693C4188.24,794.961 4187.36,795.448 4185.77,795.448C4182.57,795.448 4181.18,793.969 4180.84,792.733L4176.09,775.983C4176.08,775.965 4176.08,775.947 4176.07,775.928C4176,775.656 4175.97,775.384 4175.97,775.112C4175.97,773.782 4176.9,771.926 4180.14,771.926C4181.11,771.926 4181.86,772.099 4182.41,772.341C4183.39,772.774 4184.1,773.546 4184.41,774.755L4185.17,777.603L4185.83,774.743ZM4298.03,792.948C4296.29,792.948 4295.07,792.491 4294.4,791.577C4293.72,790.664 4293.38,789.026 4293.38,786.664C4293.38,784.963 4293.53,783.667 4293.84,782.777C4294.15,781.888 4294.62,781.281 4295.25,780.958C4295.88,780.636 4296.81,780.474 4298.03,780.474C4299.26,780.474 4300.19,780.639 4300.82,780.97C4301.45,781.301 4301.91,781.915 4302.2,782.813C4302.5,783.711 4302.64,784.986 4302.64,786.64L4302.64,786.923C4302.64,787.018 4302.45,787.105 4302.07,787.183C4301.68,787.262 4301.22,787.301 4300.68,787.301L4296.91,787.301C4296.94,789.144 4297.08,790.191 4297.32,790.443C4297.47,790.569 4297.71,790.632 4298.03,790.632C4300.18,790.632 4301.64,790.53 4302.42,790.325C4302.46,790.31 4302.48,790.302 4302.5,790.302C4302.61,790.27 4302.7,790.333 4302.78,790.491C4302.85,790.648 4302.89,791.018 4302.89,791.601C4302.89,792.184 4302.76,792.507 4302.5,792.57C4301.83,792.822 4300.34,792.948 4298.03,792.948ZM4239.01,792.948C4237.8,792.948 4236.92,792.471 4236.35,791.518C4235.79,790.565 4235.51,788.908 4235.51,786.545C4235.51,784.183 4235.86,782.581 4236.57,781.738C4237.28,780.895 4238.63,780.474 4240.61,780.474L4241.78,780.474L4241.78,774.804C4241.78,774.552 4242.07,774.426 4242.64,774.426C4243.21,774.426 4243.69,774.462 4244.06,774.533C4244.44,774.604 4244.63,774.694 4244.65,774.804L4245.07,782.34L4245.07,792.57C4245.07,792.664 4245.06,792.727 4245.04,792.759C4244.96,792.885 4244.66,792.948 4244.14,792.948C4243.61,792.948 4243.17,792.912 4242.8,792.841C4242.43,792.77 4242.25,792.68 4242.25,792.57L4241.78,791.837C4241.31,792.136 4240.97,792.349 4240.78,792.475C4240.24,792.79 4239.65,792.948 4239.01,792.948ZM4193.1,792.003L4193.1,774.804C4194.77,774.552 4196.22,774.426 4197.44,774.426C4199.71,774.426 4201.28,774.836 4202.15,775.655C4203.01,776.474 4203.45,777.828 4203.45,779.718C4203.45,782.364 4202.68,784.128 4201.14,785.01L4204.23,791.743C4204.41,792.136 4204.5,792.392 4204.5,792.51C4204.5,792.629 4204.48,792.703 4204.45,792.735C4204.39,792.877 4204.11,792.948 4203.62,792.948C4202.03,792.948 4201.1,792.648 4200.82,792.05L4198.03,785.813C4197.62,785.845 4197.01,785.86 4196.19,785.86L4196.19,791.955C4196.19,792.396 4196.15,792.672 4196.06,792.782C4195.97,792.892 4195.68,792.948 4195.21,792.948C4193.8,792.948 4193.1,792.633 4193.1,792.003ZM4189.77,774.426C4190.86,774.426 4191.41,774.655 4191.41,775.112C4191.41,775.19 4191.4,775.269 4191.39,775.348L4187.27,792.073C4187.19,792.436 4187.08,792.672 4186.95,792.782C4186.82,792.892 4186.43,792.948 4185.77,792.948C4184.25,792.948 4183.41,792.648 4183.25,792.05L4178.49,775.301C4178.48,775.238 4178.47,775.175 4178.47,775.112C4178.47,774.655 4179.02,774.426 4180.14,774.426C4180.67,774.426 4181.1,774.493 4181.4,774.627C4181.7,774.761 4181.9,775.017 4182,775.395L4185.33,787.987L4188.27,775.277C4188.34,774.946 4188.48,774.722 4188.69,774.604C4188.9,774.485 4189.26,774.426 4189.77,774.426ZM4114.52,774.403C4115.65,774.403 4116.26,774.647 4116.36,775.135L4118.02,782.388L4119.71,792.05C4119.75,792.207 4119.76,792.353 4119.76,792.487C4119.76,792.621 4119.72,792.731 4119.64,792.818C4119.56,792.904 4119.28,792.948 4118.81,792.948C4117.35,792.948 4116.58,792.648 4116.48,792.05L4115.62,787.183L4112.19,787.183L4111.43,792.073C4111.38,792.404 4111.32,792.625 4111.25,792.735C4111.17,792.845 4111.07,792.908 4110.94,792.924C4110.81,792.94 4110.6,792.948 4110.3,792.948L4109.62,792.948C4109.04,792.948 4108.68,792.916 4108.54,792.853C4108.18,792.727 4107.97,792.585 4107.92,792.428C4107.91,792.349 4107.9,792.278 4107.9,792.215C4107.9,792.152 4108.07,791.113 4108.41,789.097C4108.76,787.081 4109.18,784.679 4109.68,781.892C4110.18,779.104 4110.5,777.277 4110.66,776.411C4110.81,775.545 4110.9,775.056 4110.91,774.946C4110.98,774.584 4112.18,774.403 4114.52,774.403ZM4136.04,781.277C4136.15,781.34 4136.21,781.486 4136.21,781.714C4136.21,781.943 4136.15,782.246 4136.04,782.624C4135.83,783.317 4135.6,783.608 4135.35,783.498L4135.33,783.498L4134.47,783.167C4134,782.963 4133.42,782.86 4132.74,782.86C4132.06,782.86 4131.63,783.128 4131.44,783.663C4131.26,784.199 4131.16,785.23 4131.16,786.758C4131.16,788.286 4131.28,789.313 4131.52,789.841C4131.75,790.369 4132.21,790.632 4132.88,790.632C4133.84,790.632 4134.59,790.577 4135.13,790.467C4135.67,790.357 4135.95,790.302 4135.97,790.302C4136.08,790.27 4136.17,790.333 4136.25,790.491C4136.32,790.648 4136.36,791.018 4136.36,791.601C4136.36,792.184 4136.23,792.507 4135.97,792.57C4134.95,792.822 4133.96,792.948 4132.98,792.948C4131,792.948 4129.65,792.495 4128.92,791.589C4128.19,790.684 4127.83,789.042 4127.83,786.664C4127.83,784.947 4127.99,783.652 4128.31,782.777C4128.62,781.903 4129.14,781.301 4129.84,780.97C4130.54,780.639 4131.56,780.474 4132.9,780.474C4134.24,780.474 4135.28,780.742 4136.02,781.277L4136.04,781.277ZM4270.26,791.837C4269.41,792.577 4268.66,792.948 4268,792.948C4267.34,792.948 4266.8,792.904 4266.39,792.818C4265.98,792.731 4265.61,792.542 4265.29,792.251C4264.96,791.959 4264.73,791.538 4264.6,790.987C4264.47,790.436 4264.41,789.703 4264.41,788.79C4264.41,787.514 4265.05,786.64 4266.34,786.167L4269.85,785.293C4269.83,784.27 4269.73,783.608 4269.53,783.309C4269.33,783.01 4268.91,782.86 4268.25,782.86C4267.6,782.86 4267.04,782.963 4266.56,783.167L4265.7,783.498L4265.68,783.498C4265.53,783.577 4265.4,783.514 4265.29,783.309C4264.99,782.711 4264.85,782.242 4264.85,781.903C4264.85,781.565 4264.88,781.376 4264.93,781.336C4264.99,781.297 4265.02,781.269 4265.02,781.254C4265.84,780.734 4266.89,780.474 4268.19,780.474C4269.49,780.474 4270.49,780.639 4271.19,780.97C4271.9,781.301 4272.41,781.903 4272.73,782.777C4273.05,783.652 4273.2,784.947 4273.2,786.664L4273.16,792.57C4273.16,792.664 4273.14,792.727 4273.11,792.759C4273.04,792.885 4272.73,792.948 4272.18,792.948C4271.16,792.948 4270.66,792.822 4270.66,792.57L4270.26,791.837ZM4137.93,786.664C4137.93,784.947 4138.08,783.648 4138.39,782.766C4138.7,781.884 4139.19,781.281 4139.86,780.958C4140.53,780.636 4141.52,780.474 4142.83,780.474C4144.14,780.474 4145.12,780.636 4145.8,780.958C4146.47,781.281 4146.95,781.884 4147.27,782.766C4147.58,783.648 4147.73,784.947 4147.73,786.664C4147.73,789.026 4147.38,790.664 4146.68,791.577C4145.97,792.491 4144.69,792.948 4142.83,792.948C4140.97,792.948 4139.68,792.491 4138.98,791.577C4138.28,790.664 4137.93,789.026 4137.93,786.664ZM4287.86,792.57L4287.86,785.388C4287.86,783.624 4287.73,782.742 4287.47,782.742C4286.9,782.742 4286.07,783.049 4284.99,783.663C4285.08,784.246 4285.12,784.821 4285.12,785.388L4285.12,792.57C4285.12,792.664 4285.11,792.727 4285.09,792.759C4285.01,792.885 4284.7,792.948 4284.15,792.948C4283.6,792.948 4283.04,792.908 4282.46,792.829C4281.88,792.751 4281.59,792.664 4281.59,792.57L4281.59,784.514C4281.56,783.333 4281.43,782.742 4281.2,782.742C4280.61,782.742 4279.82,783.026 4278.84,783.592L4278.84,792.57C4278.84,792.664 4278.84,792.727 4278.82,792.759C4278.74,792.885 4278.42,792.948 4277.88,792.948C4277.33,792.948 4276.76,792.908 4276.18,792.829C4275.6,792.751 4275.31,792.664 4275.31,792.57L4275.31,780.852C4275.31,780.6 4275.64,780.474 4276.29,780.474C4277.32,780.474 4277.91,780.6 4278.06,780.852C4278.06,780.884 4278.07,780.899 4278.08,780.899L4278.55,781.797C4279.92,780.915 4280.94,780.474 4281.61,780.474C4283.05,780.474 4284.02,780.978 4284.53,781.986C4286.03,780.978 4287.15,780.474 4287.89,780.474C4289.1,780.474 4289.98,780.836 4290.55,781.561C4291.11,782.285 4291.39,783.561 4291.39,785.388L4291.39,792.57C4291.39,792.664 4291.39,792.727 4291.37,792.759C4291.29,792.885 4290.97,792.948 4290.43,792.948C4289.88,792.948 4289.31,792.908 4288.73,792.829C4288.15,792.751 4287.86,792.664 4287.86,792.57ZM4224.38,786.664C4224.38,784.947 4224.53,783.648 4224.84,782.766C4225.15,781.884 4225.65,781.281 4226.32,780.958C4226.98,780.636 4227.97,780.474 4229.28,780.474C4230.59,780.474 4231.58,780.636 4232.25,780.958C4232.92,781.281 4233.41,781.884 4233.72,782.766C4234.03,783.648 4234.18,784.947 4234.18,786.664C4234.18,789.026 4233.83,790.664 4233.13,791.577C4232.43,792.491 4231.14,792.948 4229.28,792.948C4227.42,792.948 4226.14,792.491 4225.43,791.577C4224.73,790.664 4224.38,789.026 4224.38,786.664ZM4149.55,786.664C4149.55,784.947 4149.7,783.648 4150.01,782.766C4150.32,781.884 4150.81,781.281 4151.48,780.958C4152.15,780.636 4153.14,780.474 4154.45,780.474C4155.75,780.474 4156.74,780.636 4157.41,780.958C4158.08,781.281 4158.57,781.884 4158.88,782.766C4159.19,783.648 4159.35,784.947 4159.35,786.664C4159.35,789.026 4159,790.664 4158.3,791.577C4157.59,792.491 4156.31,792.948 4154.45,792.948C4152.58,792.948 4151.3,792.491 4150.6,791.577C4149.9,790.664 4149.55,789.026 4149.55,786.664ZM4136.45,792.753L4136.36,792.769L4136.45,792.753ZM4136.48,792.747C4136.51,792.742 4136.53,792.737 4136.56,792.731C4136.58,792.725 4136.61,792.719 4136.63,792.712L4136.48,792.747ZM4122.17,791.59L4122.16,791.542L4122.18,791.619L4122.17,791.59ZM4165.82,790.68C4166.43,790.68 4166.84,790.439 4167.06,789.959C4167.28,789.479 4167.39,788.668 4167.39,787.526C4167.39,786.384 4167.39,785.632 4167.38,785.27C4167.37,784.908 4167.36,784.49 4167.34,784.018C4167.31,783.167 4167.19,782.742 4167,782.742C4166.41,782.742 4165.62,783.026 4164.64,783.592L4164.64,790.68L4165.82,790.68ZM4240.61,782.742C4240,782.742 4239.59,782.982 4239.37,783.463C4239.15,783.943 4239.04,784.754 4239.04,785.896C4239.04,787.038 4239.04,787.79 4239.05,788.152C4239.06,788.514 4239.07,788.931 4239.09,789.404C4239.12,790.254 4239.23,790.68 4239.43,790.68C4240.02,790.68 4240.8,790.396 4241.78,789.829L4241.78,782.742L4240.61,782.742ZM4267.13,788.837C4267.13,789.971 4267.47,790.569 4268.16,790.632C4268.63,790.632 4268.97,790.554 4269.19,790.396C4269.64,790.097 4269.87,788.979 4269.87,787.042C4269.02,787.152 4268.35,787.376 4267.86,787.715C4267.37,788.053 4267.13,788.427 4267.13,788.837ZM4141.26,786.664C4141.26,789.309 4141.52,790.632 4142.04,790.632C4142.76,790.632 4143.29,790.522 4143.64,790.302C4143.82,790.176 4143.94,789.947 4144.01,789.617C4144.14,788.955 4144.2,787.971 4144.2,786.664C4144.2,784.049 4143.94,782.742 4143.42,782.742C4142.44,782.742 4141.83,782.959 4141.6,783.392C4141.37,783.825 4141.26,784.915 4141.26,786.664ZM4227.71,786.664C4227.71,789.309 4227.97,790.632 4228.5,790.632C4229.22,790.632 4229.75,790.522 4230.09,790.302C4230.27,790.176 4230.39,789.947 4230.46,789.617C4230.59,788.955 4230.65,787.971 4230.65,786.664C4230.65,784.049 4230.39,782.742 4229.87,782.742C4228.89,782.742 4228.28,782.959 4228.06,783.392C4227.83,783.825 4227.71,784.915 4227.71,786.664ZM4152.88,786.664C4152.88,789.309 4153.14,790.632 4153.66,790.632C4154.38,790.632 4154.91,790.522 4155.26,790.302C4155.44,790.176 4155.56,789.947 4155.62,789.617C4155.75,788.955 4155.82,787.971 4155.82,786.664C4155.82,784.049 4155.56,782.742 4155.03,782.742C4154.06,782.742 4153.45,782.959 4153.22,783.392C4152.99,783.825 4152.88,784.915 4152.88,786.664ZM4217.86,782.742C4216.8,782.742 4216.15,782.848 4215.93,783.061C4215.71,783.274 4215.6,783.864 4215.6,784.833C4215.6,785.801 4215.65,786.502 4215.74,786.935C4215.83,787.368 4215.92,787.62 4216.02,787.691C4216.12,787.762 4216.36,787.798 4216.74,787.798C4217.13,787.798 4217.44,787.786 4217.68,787.762C4217.91,787.738 4218.13,787.624 4218.32,787.42C4218.52,787.215 4218.63,786.947 4218.65,786.616C4218.68,786.286 4218.69,785.766 4218.69,785.057C4218.69,784.348 4218.65,783.817 4218.56,783.463C4218.47,783.108 4218.37,782.9 4218.27,782.837C4218.18,782.774 4218.04,782.742 4217.86,782.742ZM4258.96,782.742C4257.9,782.742 4257.26,782.848 4257.04,783.061C4256.82,783.274 4256.71,783.864 4256.71,784.833C4256.71,785.801 4256.75,786.502 4256.84,786.935C4256.93,787.368 4257.03,787.62 4257.13,787.691C4257.22,787.762 4257.47,787.798 4257.85,787.798C4258.23,787.798 4258.54,787.786 4258.78,787.762C4259.02,787.738 4259.23,787.624 4259.43,787.42C4259.63,787.215 4259.74,786.947 4259.76,786.616C4259.78,786.286 4259.8,785.766 4259.8,785.057C4259.8,784.348 4259.75,783.817 4259.66,783.463C4259.57,783.108 4259.48,782.9 4259.38,782.837C4259.28,782.774 4259.14,782.742 4258.96,782.742ZM4296.91,783.569L4296.91,785.412L4299.38,785.412C4299.32,783.585 4299.13,782.671 4298.82,782.671C4298.26,782.671 4297.81,782.75 4297.45,782.907C4297.09,783.065 4296.91,783.285 4296.91,783.569ZM4113.78,777.498L4112.65,784.325L4115.08,784.325L4113.78,777.498ZM4196.58,782.624C4197.89,782.624 4198.77,782.447 4199.23,782.092C4199.69,781.738 4199.92,780.939 4199.92,779.695C4199.92,778.939 4199.79,778.34 4199.54,777.899C4199.28,777.458 4199,777.238 4198.69,777.238C4197.53,777.238 4196.82,777.261 4196.57,777.309C4196.32,777.356 4196.19,777.513 4196.19,777.781L4196.19,782.27C4196.19,782.474 4196.23,782.585 4196.31,782.6C4196.4,782.616 4196.48,782.624 4196.58,782.624ZM4136.05,781.096L4136.34,781.202L4136.05,781.096ZM4278.26,778.406C4278.57,778.427 4278.86,778.505 4279.13,778.631L4279.14,778.629C4278.87,778.503 4278.58,778.426 4278.26,778.406ZM4278.25,778.405C4278.23,778.403 4278.2,778.402 4278.17,778.401C4278.14,778.4 4278.11,778.399 4278.08,778.399L4278.25,778.405ZM4185.83,774.743L4185.82,774.792L4185.84,774.713L4185.83,774.743ZM4118.8,774.59L4118.79,774.575L4118.81,774.643L4118.8,774.59Z" style="fill:white;"/>
                </g>
                <g transform="matrix(0.775207,0,0,0.775207,238.146,56.3146)">
                    <g transform="matrix(0.785143,0,0,0.785143,203.467,181.869)">
                        <circle cx="996" cy="808" r="36" style="fill:none;stroke:white;stroke-width:12.41px;stroke-linecap:round;stroke-miterlimit:1.5;"/>
                    </g>
                    <g transform="matrix(0.483484,0,0,0.437942,555.251,445.753)">
                        <path d="M910.884,802.353C913.519,813.056 917.727,821.56 924,827.177C917.727,832.933 913.519,841.425 910.884,852C908.415,841.493 904.115,833.134 897.767,827.177C904.365,821.333 908.408,812.747 910.884,802.353Z" style="fill:white;"/>
                    </g>
                    <g transform="matrix(0.483484,0,0,0.437942,532.422,450.749)">
                        <path d="M910.884,802.353C913.519,813.056 917.727,821.56 924,827.177C917.727,832.933 913.519,841.425 910.884,852C908.415,841.493 904.115,833.134 897.767,827.177C904.365,821.333 908.408,812.747 910.884,802.353Z" style="fill:white;"/>
                    </g>
                    <g transform="matrix(0.483484,0,0,0.437942,547.383,464.881)">
                        <path d="M910.884,802.353C913.519,813.056 917.727,821.56 924,827.177C917.727,832.933 913.519,841.425 910.884,852C908.415,841.493 904.115,833.134 897.767,827.177C904.365,821.333 908.408,812.747 910.884,802.353Z" style="fill:white;"/>
                    </g>
                </g>
            </g>
        </g>
    </g>
</svg>
